<svg width="24" height="24" viewBox="0 0 24 24" fill="none" xmlns="http://www.w3.org/2000/svg">
<path d="M18 11V13H22V11H18ZM16 17.61C16.96 18.32 18.21 19.26 19.2 20C19.6 19.47 20 18.93 20.4 18.4C19.41 17.66 18.16 16.72 17.2 16C16.8 16.54 16.4 17.08 16 17.61ZM20.4 5.6C20 5.07 19.6 4.53 19.2 4C18.21 4.74 16.96 5.68 16 6.4C16.4 6.93 16.8 7.47 17.2 8C18.16 7.28 19.41 6.35 20.4 5.6ZM4 9C2.9 9 2 9.9 2 11V13C2 14.1 2.9 15 4 15H5V19H7V15H8L13 18V6L8 9H4ZM15.5 12C15.5 10.67 14.92 9.47 14 8.65V15.34C14.92 14.53 15.5 13.33 15.5 12Z" fill="url(#paint0_diamond_426_894)"/>
<defs>
<radialGradient id="paint0_diamond_426_894" cx="0" cy="0" r="1" gradientUnits="userSpaceOnUse" gradientTransform="translate(12 12) rotate(90) scale(8 10)">
<stop stop-color="white"/>
<stop offset="0.546875" stop-color="#FEDA77"/>
<stop offset="1" stop-color="#FFBB02"/>
</radialGradient>
</defs>
</svg>
